{
    "basename": "asr-string_04-2ebc0e6",
    "cmd": "lfortran --show-asr --no-color {infile} -o {outfile}",
    "infile": "tests/../integration_tests/string_04.f90",
    "infile_hash": "1b092d9e71bbd1bc23e03b5570e3cdb8b87541e92970a9a2cd7719f5",
    "outfile": null,
    "outfile_hash": null,
    "stdout": "asr-string_04-2ebc0e6.stdout",
    "stdout_hash": "6ea913367dab042684ddb8820645807fb9d6ea599c8eab4e16070a7a",
    "stderr": null,
    "stderr_hash": null,
    "returncode": 0
}